Library\Bee\artifacts\mvdfrm\Unity.2D.Animation.Editor.ref.dll_A13BD6459BB26E0B.mvfrm
Library\Bee\artifacts\mvdfrm\Unity.2D.Animation.Runtime.ref.dll_6747672A37E369F0.mvfrm
Library\Bee\artifacts\mvdfrm\Unity.2D.Common.Editor.ref.dll_BD59A5CBF9D52B22.mvfrm
Library\Bee\artifacts\mvdfrm\Unity.2D.Common.Runtime.ref.dll_77798F371487C3E9.mvfrm
Library\Bee\artifacts\mvdfrm\Unity.2D.IK.Editor.ref.dll_F60355C05B38283B.mvfrm
Library\Bee\artifacts\mvdfrm\Unity.2D.IK.Runtime.ref.dll_16F22BA31A1D34C0.mvfrm
Library\Bee\artifacts\mvdfrm\Unity.2D.Path.Editor.ref.dll_583975DB52C81A78.mvfrm
Library\Bee\artifacts\mvdfrm\Unity.2D.PixelPerfect.Editor.ref.dll_500201FE28D4C516.mvfrm
Library\Bee\artifacts\mvdfrm\Unity.2D.PixelPerfect.ref.dll_88C9F7A57CCB704B.mvfrm
Library\Bee\artifacts\mvdfrm\Unity.2D.Psdimporter.Editor.ref.dll_B76AC6E0D8C9839C.mvfrm
Library\Bee\artifacts\mvdfrm\Unity.2D.Sprite.Editor.ref.dll_DDBAA27A82CE9E28.mvfrm
Library\Bee\artifacts\mvdfrm\Unity.2D.SpriteShape.Editor.ref.dll_1AEEC37E15960FB3.mvfrm
Library\Bee\artifacts\mvdfrm\Unity.2D.SpriteShape.Runtime.ref.dll_BCD600250821B9C8.mvfrm
Library\Bee\artifacts\mvdfrm\Unity.2D.Tilemap.Editor.ref.dll_436C0E2610862891.mvfrm
Library\Bee\artifacts\mvdfrm\Unity.2D.Tilemap.Extras.Editor.ref.dll_8DA00406C36CC6AA.mvfrm
Library\Bee\artifacts\mvdfrm\Unity.2D.Tilemap.Extras.ref.dll_371E356D6F5B6577.mvfrm
Library\Bee\artifacts\mvdfrm\Unity.Burst.Editor.ref.dll_E2F92DAB6C167CC9.mvfrm
Library\Bee\artifacts\mvdfrm\Unity.Burst.ref.dll_F30DFA20C0DD1968.mvfrm
Library\Bee\artifacts\mvdfrm\Unity.InternalAPIEditorBridge.001.ref.dll_C275F416F58A86FE.mvfrm
Library\Bee\artifacts\mvdfrm\Unity.InternalAPIEngineBridge.001.ref.dll_B4F0ACC15A996E43.mvfrm
Library\Bee\artifacts\mvdfrm\Unity.Mathematics.Editor.ref.dll_9A20CFD48BC11F43.mvfrm
Library\Bee\artifacts\mvdfrm\Unity.Mathematics.ref.dll_E8EFDB1B8D5C174E.mvfrm
Library\Bee\artifacts\mvdfrm\Unity.PlasticSCM.Editor.ref.dll_257AEB342BE77856.mvfrm
Library\Bee\artifacts\mvdfrm\Unity.Rider.Editor.ref.dll_9B5591808ABA37AF.mvfrm
Library\Bee\artifacts\mvdfrm\Unity.TextMeshPro.Editor.ref.dll_159E061D77A10B86.mvfrm
Library\Bee\artifacts\mvdfrm\Unity.TextMeshPro.ref.dll_84A4293DBDD182DB.mvfrm
Library\Bee\artifacts\mvdfrm\Unity.Timeline.Editor.ref.dll_0D3D3C0B73557612.mvfrm
Library\Bee\artifacts\mvdfrm\Unity.Timeline.ref.dll_621CDDF9C514DF8F.mvfrm
Library\Bee\artifacts\mvdfrm\Unity.VSCode.Editor.ref.dll_3628369EB48E4C19.mvfrm
Library\Bee\artifacts\mvdfrm\Unity.VisualScripting.Core.Editor.ref.dll_EDC8690F57C5BDFD.mvfrm
Library\Bee\artifacts\mvdfrm\Unity.VisualScripting.Core.ref.dll_D75DF4EA1AFE54F4.mvfrm
Library\Bee\artifacts\mvdfrm\Unity.VisualScripting.Flow.Editor.ref.dll_6AF951BE66A4493E.mvfrm
Library\Bee\artifacts\mvdfrm\Unity.VisualScripting.Flow.ref.dll_1E6ED5409D07C9A3.mvfrm
Library\Bee\artifacts\mvdfrm\Unity.VisualScripting.SettingsProvider.Editor.ref.dll_A1A44354E0B583A8.mvfrm
Library\Bee\artifacts\mvdfrm\Unity.VisualScripting.Shared.Editor.ref.dll_9669F6EBFF6DFFB7.mvfrm
Library\Bee\artifacts\mvdfrm\Unity.VisualScripting.State.Editor.ref.dll_E03858E727F23F6F.mvfrm
Library\Bee\artifacts\mvdfrm\Unity.VisualScripting.State.ref.dll_D91762B7076BE462.mvfrm
Library\Bee\artifacts\mvdfrm\Unity.VisualStudio.Editor.ref.dll_3A975DBA53ABA4AD.mvfrm
Library\Bee\artifacts\mvdfrm\UnityEditor.UI.ref.dll_4C98D3F7040CD4F5.mvfrm
Library\Bee\artifacts\mvdfrm\UnityEngine.UI.ref.dll_08FEAA520A2EFD60.mvfrm
Library\Bee\artifacts\mvdfrm\UnityEditor.CoreModule.dll_BC4DDA145DC3045B.mvfrm
Library\Bee\artifacts\mvdfrm\UnityEditor.DeviceSimulatorModule.dll_E2C0D6B852B2D556.mvfrm
Library\Bee\artifacts\mvdfrm\UnityEditor.DiagnosticsModule.dll_541E44E21AC4C224.mvfrm
Library\Bee\artifacts\mvdfrm\UnityEditor.dll_99ADE225F055564A.mvfrm
Library\Bee\artifacts\mvdfrm\UnityEditor.GraphViewModule.dll_9F6C162881E7097B.mvfrm
Library\Bee\artifacts\mvdfrm\UnityEditor.PackageManagerUIModule.dll_41B7102786497DF7.mvfrm
Library\Bee\artifacts\mvdfrm\UnityEditor.QuickSearchModule.dll_DF2DC5EF739BBE7D.mvfrm
Library\Bee\artifacts\mvdfrm\UnityEditor.SceneTemplateModule.dll_F3D840E19D215E9E.mvfrm
Library\Bee\artifacts\mvdfrm\UnityEditor.TextCoreFontEngineModule.dll_9A4740D1292D9379.mvfrm
Library\Bee\artifacts\mvdfrm\UnityEditor.TextCoreTextEngineModule.dll_E22F7742B8B14C97.mvfrm
Library\Bee\artifacts\mvdfrm\UnityEditor.UIBuilderModule.dll_F3F4C344F49F82AF.mvfrm
Library\Bee\artifacts\mvdfrm\UnityEditor.UIElementsModule.dll_78A6924E59A053B7.mvfrm
Library\Bee\artifacts\mvdfrm\UnityEditor.UIElementsSamplesModule.dll_918B0D4C070A9626.mvfrm
Library\Bee\artifacts\mvdfrm\UnityEditor.UIServiceModule.dll_2CE6D4A7DDD6D2C9.mvfrm
Library\Bee\artifacts\mvdfrm\UnityEditor.UnityConnectModule.dll_6B638DED32A6E091.mvfrm
Library\Bee\artifacts\mvdfrm\UnityEngine.AccessibilityModule.dll_267DAC789D97863B.mvfrm
Library\Bee\artifacts\mvdfrm\UnityEngine.AIModule.dll_140CE1A260ED554F.mvfrm
Library\Bee\artifacts\mvdfrm\UnityEngine.AndroidJNIModule.dll_F6EF7B21A2BFC28D.mvfrm
Library\Bee\artifacts\mvdfrm\UnityEngine.AnimationModule.dll_6DF192515C43DE21.mvfrm
Library\Bee\artifacts\mvdfrm\UnityEngine.ARModule.dll_CD7FA6A5BE0AB418.mvfrm
Library\Bee\artifacts\mvdfrm\UnityEngine.AssetBundleModule.dll_2316F8E0D602736F.mvfrm
Library\Bee\artifacts\mvdfrm\UnityEngine.AudioModule.dll_50C471377C6B4ED3.mvfrm
Library\Bee\artifacts\mvdfrm\UnityEngine.ClothModule.dll_B7ACCE3256882DB7.mvfrm
Library\Bee\artifacts\mvdfrm\UnityEngine.ClusterInputModule.dll_EB000302E42EB357.mvfrm
Library\Bee\artifacts\mvdfrm\UnityEngine.ClusterRendererModule.dll_E86D9929C26DE2DA.mvfrm
Library\Bee\artifacts\mvdfrm\UnityEngine.CoreModule.dll_DF6EAD6705C86F86.mvfrm
Library\Bee\artifacts\mvdfrm\UnityEngine.CrashReportingModule.dll_8E2D4FF58F14F2DE.mvfrm
Library\Bee\artifacts\mvdfrm\UnityEngine.DirectorModule.dll_A7DBB4B0A8DB6F23.mvfrm
Library\Bee\artifacts\mvdfrm\UnityEngine.dll_CC5228FE4EC8E32F.mvfrm
Library\Bee\artifacts\mvdfrm\UnityEngine.DSPGraphModule.dll_AD2D161A1B3C4044.mvfrm
Library\Bee\artifacts\mvdfrm\UnityEngine.GameCenterModule.dll_213CC53C6900B37E.mvfrm
Library\Bee\artifacts\mvdfrm\UnityEngine.GIModule.dll_AC492AAFFC9C3D69.mvfrm
Library\Bee\artifacts\mvdfrm\UnityEngine.GridModule.dll_BCDFC9551E1D057D.mvfrm
Library\Bee\artifacts\mvdfrm\UnityEngine.HotReloadModule.dll_EF3A50573776F9A3.mvfrm
Library\Bee\artifacts\mvdfrm\UnityEngine.ImageConversionModule.dll_545F96DA44929ACE.mvfrm
Library\Bee\artifacts\mvdfrm\UnityEngine.IMGUIModule.dll_8924109E429CE2B4.mvfrm
Library\Bee\artifacts\mvdfrm\UnityEngine.InputLegacyModule.dll_B45C13FF6DF42960.mvfrm
Library\Bee\artifacts\mvdfrm\UnityEngine.InputModule.dll_B73A38E7F2A37377.mvfrm
Library\Bee\artifacts\mvdfrm\UnityEngine.JSONSerializeModule.dll_869535B49CD2E6C5.mvfrm
Library\Bee\artifacts\mvdfrm\UnityEngine.LocalizationModule.dll_294CCD557BAAA650.mvfrm
Library\Bee\artifacts\mvdfrm\UnityEngine.ParticleSystemModule.dll_E13F9941FD267E6C.mvfrm
Library\Bee\artifacts\mvdfrm\UnityEngine.PerformanceReportingModule.dll_1A31831C91C50A45.mvfrm
Library\Bee\artifacts\mvdfrm\UnityEngine.Physics2DModule.dll_BA978241FD40D5B6.mvfrm
Library\Bee\artifacts\mvdfrm\UnityEngine.PhysicsModule.dll_913AAEBE8FE86204.mvfrm
Library\Bee\artifacts\mvdfrm\UnityEngine.ProfilerModule.dll_DA21EDE74234F630.mvfrm
Library\Bee\artifacts\mvdfrm\UnityEngine.RuntimeInitializeOnLoadManagerInitializerModule.dll_BDBFF9FCEABAB27F.mvfrm
Library\Bee\artifacts\mvdfrm\UnityEngine.ScreenCaptureModule.dll_A07CE339B13F1327.mvfrm
Library\Bee\artifacts\mvdfrm\UnityEngine.SharedInternalsModule.dll_D870D5AFBBC0961E.mvfrm
Library\Bee\artifacts\mvdfrm\UnityEngine.SpriteMaskModule.dll_0A6937CC8A7048F8.mvfrm
Library\Bee\artifacts\mvdfrm\UnityEngine.SpriteShapeModule.dll_3C78263B8BA4AB79.mvfrm
Library\Bee\artifacts\mvdfrm\UnityEngine.StreamingModule.dll_22867FA1ABCB955F.mvfrm
Library\Bee\artifacts\mvdfrm\UnityEngine.SubstanceModule.dll_FF3193EAF71E936D.mvfrm
Library\Bee\artifacts\mvdfrm\UnityEngine.SubsystemsModule.dll_75169E2E58B8310B.mvfrm
Library\Bee\artifacts\mvdfrm\UnityEngine.TerrainModule.dll_AB812A2D65A6AAF2.mvfrm
Library\Bee\artifacts\mvdfrm\UnityEngine.TerrainPhysicsModule.dll_E1BA4215166978F9.mvfrm
Library\Bee\artifacts\mvdfrm\UnityEngine.TextCoreFontEngineModule.dll_18A6BC243C2B5244.mvfrm
Library\Bee\artifacts\mvdfrm\UnityEngine.TextCoreTextEngineModule.dll_608EF295CBAF0B62.mvfrm
Library\Bee\artifacts\mvdfrm\UnityEngine.TextRenderingModule.dll_C9BC55446876931C.mvfrm
Library\Bee\artifacts\mvdfrm\UnityEngine.TilemapModule.dll_4A7D91AE7D638BFB.mvfrm
Library\Bee\artifacts\mvdfrm\UnityEngine.TLSModule.dll_ECEC1431730491D8.mvfrm
Library\Bee\artifacts\mvdfrm\UnityEngine.UIElementsModule.dll_7954FF965BE46D02.mvfrm
Library\Bee\artifacts\mvdfrm\UnityEngine.UIElementsNativeModule.dll_8C30C4BCF7C1EE19.mvfrm
Library\Bee\artifacts\mvdfrm\UnityEngine.UIModule.dll_0F807FCFBD345AFB.mvfrm
Library\Bee\artifacts\mvdfrm\UnityEngine.UmbraModule.dll_CB991D500991FA46.mvfrm
Library\Bee\artifacts\mvdfrm\UnityEngine.UNETModule.dll_7214F55052D764FF.mvfrm
Library\Bee\artifacts\mvdfrm\UnityEngine.UnityAnalyticsCommonModule.dll_B5704060ABADA8A3.mvfrm
Library\Bee\artifacts\mvdfrm\UnityEngine.UnityAnalyticsModule.dll_00DF0A0BA94DD068.mvfrm
Library\Bee\artifacts\mvdfrm\UnityEngine.UnityConnectModule.dll_58C311FC2D2EE13C.mvfrm
Library\Bee\artifacts\mvdfrm\UnityEngine.UnityCurlModule.dll_A10E3382CC57D00E.mvfrm
Library\Bee\artifacts\mvdfrm\UnityEngine.UnityTestProtocolModule.dll_4D4DC33E6105EB7C.mvfrm
Library\Bee\artifacts\mvdfrm\UnityEngine.UnityWebRequestAssetBundleModule.dll_99EF10E095920139.mvfrm
Library\Bee\artifacts\mvdfrm\UnityEngine.UnityWebRequestAudioModule.dll_922DD6FB182FD4DD.mvfrm
Library\Bee\artifacts\mvdfrm\UnityEngine.UnityWebRequestModule.dll_65FE9E844F87354D.mvfrm
Library\Bee\artifacts\mvdfrm\UnityEngine.UnityWebRequestTextureModule.dll_4E58C43B3E735852.mvfrm
Library\Bee\artifacts\mvdfrm\UnityEngine.UnityWebRequestWWWModule.dll_2B5137F1BB6EC7CE.mvfrm
Library\Bee\artifacts\mvdfrm\UnityEngine.VehiclesModule.dll_1F9EAE3023053EBE.mvfrm
Library\Bee\artifacts\mvdfrm\UnityEngine.VFXModule.dll_6DCAACA04971FB45.mvfrm
Library\Bee\artifacts\mvdfrm\UnityEngine.VideoModule.dll_75CDF5A23EFD6A78.mvfrm
Library\Bee\artifacts\mvdfrm\UnityEngine.VirtualTexturingModule.dll_B0BD792BD0706EA4.mvfrm
Library\Bee\artifacts\mvdfrm\UnityEngine.VRModule.dll_6252A6555EEEE073.mvfrm
Library\Bee\artifacts\mvdfrm\UnityEngine.WindModule.dll_55BD888F96FEEDEF.mvfrm
Library\Bee\artifacts\mvdfrm\UnityEngine.XRModule.dll_95116959E8292DD1.mvfrm
Library\Bee\artifacts\mvdfrm\Unity.Burst.Cecil.dll_9EBE3B1CF70E1567.mvfrm
Library\Bee\artifacts\mvdfrm\Unity.Burst.Cecil.Mdb.dll_F3B9F03AAAFDFA64.mvfrm
Library\Bee\artifacts\mvdfrm\Unity.Burst.Cecil.Pdb.dll_0B0C68AA29B2FBE7.mvfrm
Library\Bee\artifacts\mvdfrm\Unity.Burst.Cecil.Rocks.dll_DB80F89C92F40EE7.mvfrm
Library\Bee\artifacts\mvdfrm\Unity.Burst.Unsafe.dll_F625351A3CC61BFC.mvfrm
Library\Bee\artifacts\mvdfrm\Unity.VisualScripting.Antlr3.Runtime.dll_FE118D6CC90F1BBB.mvfrm